%YAML 1.1
%TAG !u! tag:unity3d.com,2011:
--- !u!1045 &1
EditorBuildSettings:
  m_ObjectHideFlags: 0
  serializedVersion: 2
  m_Scenes:
  - enabled: 0
    path: 
    guid: 00000000000000000000000000000000
  - enabled: 1
    path: Assets/Scenes/MainMenu.unity
    guid: 4bee370083ad1b24cbb7ab7c33223ded
  - enabled: 1
    path: Assets/Scenes/StoryScene.unity
    guid: c05c6455898f5974089358dbe755d7e5
  - enabled: 1
    path: Assets/Scenes/InterScene.unity
    guid: f7b86e4aacf012d47aa8d6a3c3736a5f
  - enabled: 1
    path: Assets/Scenes/MiniGame1.unity
    guid: 9d0084f2e83b1364093652d910446d23
  - enabled: 1
    path: Assets/Scenes/MiniGame8.unity
    guid: 760574cb0fb941a44a4c221a11accc44
  - enabled: 1
    path: Assets/Scenes/MiniGame2.unity
    guid: 9678fdabd6615bd47b0310be8963ee86
  - enabled: 0
    path: 
    guid: 00000000000000000000000000000000
  - enabled: 1
    path: Assets/Scenes/MiniGame6.unity
    guid: 5321ca1578d178e42bab4e09a8bde61b
  - enabled: 1
    path: Assets/Scenes/MiniGame7.unity
    guid: 42d2081512ffebf42b2228c3ffdc3717
  - enabled: 0
    path: 
    guid: 00000000000000000000000000000000
  - enabled: 0
    path: 
    guid: 00000000000000000000000000000000
  - enabled: 1
    path: Assets/Scenes/MiniGame10.unity
    guid: 58abef9016b03364ea169559e194bfc2
  - enabled: 1
    path: Assets/Scenes/MiniGame9.unity
    guid: 5088227ed9dd4ea43b7186e454465fee
  - enabled: 1
    path: Assets/Scenes/GameOverScene.unity
    guid: 8c1a6f3dc233f6b419c7956854704649
  - enabled: 1
    path: Assets/Scenes/MiniGame4.unity
    guid: ca4917d50f8771a4c96e673ce4dc32c0
  - enabled: 1
    path: Assets/Scenes/MiniGame5.unity
    guid: d9421cf012e490845b2375ccbc0e14aa
  - enabled: 1
    path: Assets/Scenes/MiniGame3.unity
    guid: 1bf2adde3bd0c214bbabe1c0aa9e37f2
  m_configObjects: {}
